#FIG 3.2
Landscape
Center
Inches
Letter  
100.00
Single
-2
1200 2
6 4650 1425 6075 3000
6 4650 1425 5400 1950
2 2 0 1 0 7 50 0 -1 0.000 0 0 -1 0 0 5
	 4650 1425 5400 1425 5400 1950 4650 1950 4650 1425
4 0 0 50 0 0 12 0.0000 4 180 405 4800 1725 .sgml\001
-6
2 2 0 1 0 7 50 0 -1 0.000 0 0 -1 0 0 5
	 4650 2475 5400 2475 5400 3000 4650 3000 4650 2475
2 1 0 1 0 7 50 0 -1 0.000 0 0 7 1 0 2
	1 1 1.00 60.00 120.00
	 5025 1950 5025 2475
4 0 0 50 0 0 12 0.0000 4 135 315 4875 2775 .xml\001
4 0 0 51 0 1 12 0.0000 4 180 870 5175 2250 sgml2xml.pl\001
-6
6 4650 3525 5400 4050
2 2 0 1 0 7 50 0 -1 0.000 0 0 -1 0 0 5
	 4650 3525 5400 3525 5400 4050 4650 4050 4650 3525
4 0 0 50 0 0 12 0.0000 4 105 345 4875 3825 .rtex\001
-6
6 4650 4575 5400 5100
2 2 0 1 0 7 50 0 -1 0.000 0 0 -1 0 0 5
	 4650 4575 5400 4575 5400 5100 4650 5100 4650 4575
4 0 0 50 0 0 12 0.0000 4 105 285 4875 4875 .tex\001
-6
6 5775 5625 6525 6150
2 2 0 1 0 7 50 0 20 0.000 0 0 7 0 0 5
	 5775 5625 6525 5625 6525 6150 5775 6150 5775 5625
4 0 0 49 0 0 12 0.0000 4 135 270 6000 5925 .dvi\001
-6
6 5775 6150 6825 8250
2 2 0 1 0 7 50 0 -1 0.000 0 0 -1 0 0 5
	 5775 6675 6525 6675 6525 7200 5775 7200 5775 6675
2 2 0 1 0 7 50 0 -1 0.000 0 0 -1 0 0 5
	 5775 7725 6525 7725 6525 8250 5775 8250 5775 7725
2 1 0 1 0 7 50 0 -1 0.000 0 0 7 1 0 2
	1 1 1.00 60.00 120.00
	 6150 6150 6150 6675
2 1 0 1 0 7 50 0 -1 0.000 0 0 7 1 0 2
	1 1 1.00 60.00 120.00
	 6150 7200 6150 7725
4 0 0 50 0 0 12 0.0000 4 135 225 6000 6975 .ps\001
4 0 0 50 0 0 12 0.0000 4 180 270 6000 8025 .pdf\001
4 0 0 51 0 0 12 0.0000 4 180 405 6300 6450 dvips\001
4 0 0 51 0 0 12 0.0000 4 180 495 6300 7500 ps2pdf\001
-6
6 3525 5625 4275 6150
2 2 0 1 0 7 50 0 20 0.000 0 0 7 0 0 5
	 3525 5625 4275 5625 4275 6150 3525 6150 3525 5625
4 0 0 49 0 0 12 0.0000 4 180 270 3750 5925 .pdf\001
-6
6 7575 2925 9225 3525
2 2 0 1 0 7 50 0 -1 0.000 0 0 -1 0 0 5
	 7575 2925 9225 2925 9225 3525 7575 3525 7575 2925
4 0 0 50 0 0 12 0.0000 4 180 1275 7800 3300 XSL Stylesheets\001
-6
6 7575 4875 9225 5475
2 2 0 1 0 7 50 0 -1 0.000 0 0 -1 0 0 5
	 7575 4875 9225 4875 9225 5475 7575 5475 7575 4875
4 0 0 50 0 0 12 0.0000 4 180 1185 7800 5250 LaTeX Package\001
-6
2 1 0 1 0 7 50 0 -1 0.000 0 0 7 1 0 2
	1 1 1.00 60.00 120.00
	 5025 3000 5025 3525
2 1 0 1 0 7 50 0 -1 0.000 0 0 7 1 0 2
	1 1 1.00 60.00 120.00
	 5025 4050 5025 4575
2 2 0 1 0 7 50 0 20 0.000 0 0 7 0 0 5
	 4650 4575 5400 4575 5400 5100 4650 5100 4650 4575
2 4 2 1 0 7 51 0 -1 3.000 0 0 7 0 0 5
	 4500 6300 4500 4650 2925 4650 2925 6300 4500 6300
2 4 2 1 0 7 51 0 -1 3.000 0 0 7 0 0 5
	 7125 8400 7125 4650 5550 4650 5550 8400 7125 8400
2 4 2 1 0 7 51 0 -1 3.000 0 0 7 0 0 5
	 7350 8700 7350 2025 2700 2025 2700 8700 7350 8700
2 1 0 1 0 7 50 0 -1 0.000 0 0 7 1 0 3
	1 1 1.00 60.00 120.00
	 4650 4800 3750 4800 3750 5625
2 1 0 1 0 7 50 0 -1 0.000 0 0 7 1 0 3
	1 1 1.00 60.00 120.00
	 4650 5025 4125 5025 4125 5625
2 1 0 1 0 7 50 0 -1 0.000 0 0 7 1 0 3
	1 1 1.00 60.00 120.00
	 5400 5025 5925 5025 5925 5625
2 1 0 1 0 7 50 0 -1 0.000 0 0 7 1 0 3
	1 1 1.00 60.00 120.00
	 5400 4800 6300 4800 6300 5625
2 1 0 1 0 7 50 0 -1 0.000 0 0 7 1 0 2
	1 1 1.00 60.00 120.00
	 7575 3225 5925 3225
2 1 0 1 0 7 50 0 -1 0.000 0 0 7 1 0 2
	1 1 1.00 60.00 120.00
	 7575 5175 6900 5175
4 0 0 50 0 0 12 0.0000 4 180 600 5175 3300 xsltproc\001
4 0 0 51 0 1 12 0.0000 4 135 630 5175 4350 texclean\001
4 0 0 49 0 0 12 0.0000 4 105 285 4875 4875 .tex\001
4 0 0 50 0 0 12 0.0000 4 135 810 4725 5400 makeindex\001
4 0 0 50 0 0 12 0.0000 4 135 465 4875 5700 bibtex\001
4 0 0 50 0 0 12 0.0000 4 180 600 3000 5250 pdflatex\001
4 0 0 50 0 3 12 0.0000 4 180 885 2925 4575 runpdflatex\001
4 0 0 50 0 3 12 0.0000 4 135 660 6450 4575 runlatex\001
4 0 0 50 0 0 12 0.0000 4 180 660 6000 8625 -b dvips\001
4 0 0 50 0 0 12 0.0000 4 180 720 3300 6525 -b pdftex\001
4 0 0 50 0 0 12 0.0000 4 135 375 6450 5250 latex\001
4 0 0 50 0 3 12 0.0000 4 135 570 6600 1950 dblatex\001
